\relax 
\citation{Mordecai}
\@writefile{toc}{\contentsline {section}{\numberline {1}Formulations}{1}\protected@file@percent }
\citation{Arino}
\bibcite{Mordecai}{1}
\bibcite{Arino}{2}
\@writefile{toc}{\contentsline {paragraph}{Intervention}{3}\protected@file@percent }
\@writefile{toc}{\contentsline {section}{\numberline {2}Parameters and Initial conditions}{3}\protected@file@percent }
\@writefile{toc}{\contentsline {section}{\numberline {3}Comparison with data}{3}\protected@file@percent }
