type,name,population
State,Andhra Pradesh,49386799
State,Arunachal Pradesh,1383727
State,Assam,31205576
State,Bihar,104099452
State,Chhattisgarh,25545198
State,Goa,1458545
State,Gujarat,60439692
State,Haryana,25351462
State,Himachal Pradesh,6864602
State,Jammu and Kashmir,12541302
State,Jharkhand,32988134
State,Karnataka,61095297
State,Kerala,33406061
State,Madhya Pradesh,72626809
State,Maharashtra,112374333
State,Manipur,2855794
State,Meghalaya,2966889
State,Mizoram,1097206
State,Nagaland,1978502
State,Odisha,41974218
State,Punjab,27743338
State,Rajasthan,68548437
State,Sikkim,610577
State,Tamil Nadu,72147030
State,Telangana,35193978
State,Tripura,3673917
State,Uttarakhand,10086292
State,Uttar Pradesh,199812341
State,West Bengal,91276115
UnionTerritory,Andaman and Nicobar Island,380581
UnionTerritory,Chandigarh,1055450
UnionTerritory,Dadra and Nagar Haveli,343709
UnionTerritory,Daman and Diu,243247
UnionTerritory,Delhi,16787941
UnionTerritory,Lakshadweep,64473
UnionTerritory,Puducherry,1247953
