\relax 
\providecommand\hyper@newdestlabel[2]{}
\providecommand\HyperFirstAtBeginDocument{\AtBeginDocument}
\HyperFirstAtBeginDocument{\ifx\hyper@anchor\@undefined
\global\let\oldcontentsline\contentsline
\gdef\contentsline#1#2#3#4{\oldcontentsline{#1}{#2}{#3}}
\global\let\oldnewlabel\newlabel
\gdef\newlabel#1#2{\newlabelxx{#1}#2}
\gdef\newlabelxx#1#2#3#4#5#6{\oldnewlabel{#1}{{#2}{#3}}}
\AtEndDocument{\ifx\hyper@anchor\@undefined
\let\contentsline\oldcontentsline
\let\newlabel\oldnewlabel
\fi}
\fi}
\global\let\hyper@last\relax 
\gdef\HyperFirstAtBeginDocument#1{#1}
\providecommand\HyField@AuxAddToFields[1]{}
\providecommand\HyField@AuxAddToCoFields[2]{}
\citation{Mordecai}
\@writefile{toc}{\contentsline {section}{\numberline {1}Formulations}{1}{section.1}\protected@file@percent }
\citation{Arino}
\@writefile{lof}{\contentsline {figure}{\numberline {1}{\ignorespaces {}A map of the extended SEIR.\relax }}{2}{figure.caption.1}\protected@file@percent }
\providecommand*\caption@xref[2]{\@setref\relax\@undefined{#1}}
\newlabel{diagram}{{1}{2}{{\label {diagram}}A map of the extended SEIR.\relax }{figure.caption.1}{}}
\citation{Mordecai}
\@writefile{toc}{\contentsline {section}{\numberline {2}Parameters and Initial conditions}{3}{section.2}\protected@file@percent }
\@writefile{lot}{\contentsline {table}{\numberline {1}{\ignorespaces Choice of rates: Note that in our convention $C^{E2IASY}=\frac  {f_{ASY}}{\tau _{E\DOTSB \relbar \joinrel \rightarrow ASY}}$ as mentioned in the tex\relax }}{3}{table.caption.2}\protected@file@percent }
\newlabel{table:nonlin}{{1}{3}{Choice of rates: Note that in our convention $C^{E2IASY}=\frac {f_{ASY}}{\tau _{E\longrightarrow ASY}}$ as mentioned in the tex\relax }{table.caption.2}{}}
\@writefile{lot}{\contentsline {table}{\numberline {2}{\ignorespaces {}Parameters for the simulation.\relax }}{3}{table.caption.2}\protected@file@percent }
\newlabel{params}{{2}{3}{{\label {params}}Parameters for the simulation.\relax }{table.caption.2}{}}
\@writefile{toc}{\contentsline {section}{\numberline {3}Intervention}{3}{section.3}\protected@file@percent }
\@writefile{lof}{\contentsline {figure}{\numberline {2}{\ignorespaces {}Variation in the infected (severe) and dead categories when $R_0$ is varied. Here the variation in $R_0$ is achieved by changing $\beta $. Note that for lower $R_0$ values the infected population peaks at later stage with less pronouced amplitude.\relax }}{4}{figure.caption.3}\protected@file@percent }
\newlabel{sample}{{2}{4}{{\label {sample}}Variation in the infected (severe) and dead categories when $R_0$ is varied. Here the variation in $R_0$ is achieved by changing $\beta $. Note that for lower $R_0$ values the infected population peaks at later stage with less pronouced amplitude.\relax }{figure.caption.3}{}}
\citation{census11}
\@writefile{lof}{\contentsline {figure}{\numberline {3}{\ignorespaces {}Variation in the infected (severe) when lockdown duration is varied.\relax }}{5}{figure.caption.4}\protected@file@percent }
\newlabel{lockdownduration}{{3}{5}{{\label {lockdownduration}}Variation in the infected (severe) when lockdown duration is varied.\relax }{figure.caption.4}{}}
\@writefile{toc}{\contentsline {section}{\numberline {4}Improvement in testing and quarantining}{5}{section.4}\protected@file@percent }
\@writefile{toc}{\contentsline {section}{\numberline {5}Major Questions}{5}{section.5}\protected@file@percent }
\@writefile{toc}{\contentsline {section}{\numberline {6}Migration}{5}{section.6}\protected@file@percent }
\@writefile{lof}{\contentsline {figure}{\numberline {4}{\ignorespaces {}Variation in the infected (severe) and dead categories when $\beta $ during lockdown is varied.\relax }}{6}{figure.caption.5}\protected@file@percent }
\newlabel{lockdown-beta}{{4}{6}{{\label {lockdown-beta}}Variation in the infected (severe) and dead categories when $\beta $ during lockdown is varied.\relax }{figure.caption.5}{}}
\@writefile{lof}{\contentsline {figure}{\numberline {5}{\ignorespaces {}One example of state Maharashtra with only one population category. [Top] 3 phased lockdowns are implemented on day 10 (for 25 days), day 40 (for 40 days), day 90 (for 40 days). $\beta =0.06$ during lockdowns. [Middle] lightswitch lockdown with infected threshold of 500 person and duration of 14 days. [Bottom] Cyclic lockdown with start date of 10 with duration of 14 days with 3 days break from lockdown.\relax }}{7}{figure.caption.6}\protected@file@percent }
\newlabel{Fig:lockdown}{{5}{7}{{\label {Fig:lockdown}}One example of state Maharashtra with only one population category. [Top] 3 phased lockdowns are implemented on day 10 (for 25 days), day 40 (for 40 days), day 90 (for 40 days). $\beta =0.06$ during lockdowns. [Middle] lightswitch lockdown with infected threshold of 500 person and duration of 14 days. [Bottom] Cyclic lockdown with start date of 10 with duration of 14 days with 3 days break from lockdown.\relax }{figure.caption.6}{}}
\@writefile{lof}{\contentsline {figure}{\numberline {6}{\ignorespaces {}Improvement in the number of testing within India (ICMR data).\relax }}{8}{figure.caption.7}\protected@file@percent }
\newlabel{Fig:testing}{{6}{8}{{\label {Fig:testing}}Improvement in the number of testing within India (ICMR data).\relax }{figure.caption.7}{}}
\@writefile{lof}{\contentsline {figure}{\numberline {7}{\ignorespaces {} Examples of the progress of the infection in Karnataka where lockdown and rapid testing and quarantining is implemented. [Top] Baseline scenario (left) and no lockdown but with decrease in efficiency of infectivity for $\Delta t=100$ for asymptomatic cases and $\Delta t=25$) for other infected compartments. [Second row] Single phase lockdown starting on 30 days for a duration of 30 days without (left) and with (right) rapid test effect. [Third row] Lightswitch with threshold of 500 persons and 14 days duration for a duration of 30 days without (left) and with (right) rapid test effect. [Bottom] Cyclic lockdown starting on 30 days for a duration of 7 days and break of 5 days without (left) and with (right) rapid test effect.\relax }}{9}{figure.caption.8}\protected@file@percent }
\newlabel{Fig:combined-lockdown-test-quarantine}{{7}{9}{{\label {Fig:combined-lockdown-test-quarantine}} Examples of the progress of the infection in Karnataka where lockdown and rapid testing and quarantining is implemented. [Top] Baseline scenario (left) and no lockdown but with decrease in efficiency of infectivity for $\Delta t=100$ for asymptomatic cases and $\Delta t=25$) for other infected compartments. [Second row] Single phase lockdown starting on 30 days for a duration of 30 days without (left) and with (right) rapid test effect. [Third row] Lightswitch with threshold of 500 persons and 14 days duration for a duration of 30 days without (left) and with (right) rapid test effect. [Bottom] Cyclic lockdown starting on 30 days for a duration of 7 days and break of 5 days without (left) and with (right) rapid test effect.\relax }{figure.caption.8}{}}
\citation{HT}
\citation{HT}
\@writefile{lof}{\contentsline {figure}{\numberline {8}{\ignorespaces {}Census 2011 data from HT-plot. Plot used from\nobreakspace  {}\cite  {HT}\relax }}{10}{figure.caption.9}\protected@file@percent }
\newlabel{Fig:migrationfig}{{8}{10}{{\label {Fig:migrationfig}}Census 2011 data from HT-plot. Plot used from~\cite {HT}\relax }{figure.caption.9}{}}
\@writefile{toc}{\contentsline {section}{\numberline {7}Comparison with data}{10}{section.7}\protected@file@percent }
\@writefile{lot}{\contentsline {table}{\numberline {3}{\ignorespaces {}Census 2011 table for migration in lakhs. States from second column has migrated to the states in first column with the numbers provided in third column.\relax }}{11}{table.caption.10}\protected@file@percent }
\newlabel{Tab:Migration}{{3}{11}{{\label {Tab:Migration}}Census 2011 table for migration in lakhs. States from second column has migrated to the states in first column with the numbers provided in third column.\relax }{table.caption.10}{}}
\@writefile{lof}{\contentsline {figure}{\numberline {9}{\ignorespaces {} The plots (top for Maharashtra and bottom for Karnataka) show how mobility can help in propagating the infection to a state with zero initially exposed or infected population. Initial condition 1 refers to a case where both states have 100, 7 and 3 people in exposed, asymptomatic and symptomatic conditions. Initial condition 2 refers to the case where only Karnataka does not have any exposed, asymptomatic or symptomatic population.\relax }}{12}{figure.caption.11}\protected@file@percent }
\newlabel{fig:mobility-effect}{{9}{12}{{\label {fig:mobility-effect}} The plots (top for Maharashtra and bottom for Karnataka) show how mobility can help in propagating the infection to a state with zero initially exposed or infected population. Initial condition 1 refers to a case where both states have 100, 7 and 3 people in exposed, asymptomatic and symptomatic conditions. Initial condition 2 refers to the case where only Karnataka does not have any exposed, asymptomatic or symptomatic population.\relax }{figure.caption.11}{}}
\bibcite{Mordecai}{1}
\bibcite{Arino}{2}
\bibcite{census11}{3}
\bibcite{HT}{4}
